"LANGUAGE";"FONT";"FORMAT";"RESOLUTION";"PAGE_SIZE";"BOUNDARY_LINES";"BOUNDARY_LINE_SCISSORS";"SEPARATION_TEXT";"BOUNDARY_LINE_MARGINS";"IBAN";"CR_ADDRESS_TYPE";"CR_NAME";"CR_STREET_OR_ADDRESS_LINE1";"CR_BUILDING_NR_OR_ADDRESS_LINE2";"CR_POSTAL_CODE";"CR_CITY";"CR_COUNTRY";"AMOUNT";"CURRENCY";"UD_ADDRESS_TYPE";"UD_NAME";"UD_STREET_OR_ADDRESS_LINE1";"UD_BUILDING_NR_OR_ADDRESS_LINE2";"UD_POSTAL_CODE";"UD_CITY";"UD_COUNTRY";"REFERENCE_TYPE";"REFERENCE";"UNSTRUCTURED_MESSAGE";"BILLING_INFORMATION";"AP1";"AP2"
"DE";"LIBERATION_SANS";"PDF";"";"DIN_LANG";"";"";"";"";"CH4431999123000889012";"S";"Robert Schneider AG";"Rue du Lac";"1268";"2501";"Biel";"CH";"130.1";"EUR";"S";"Pia-Maria Rutschmann-Schnyder";"Grosse Marktgasse";"28";"3014";"Bern";"CH";"QRR";"210000000003139471430009017";"Auftrag vom 03.04.2019";"//S1/10/10201409/11/190512/20/1400.000-53/30/106017086/31/180508/32/7.7/40/2:10;0:30";"eBill/B/john.doe@example.com";"eBill/B/john.doe@example.com"
"IT";"LIBERATION_SANS";"PNG";"MEDIUM_300_DPI";"DIN_LANG";"TRUE";"1";"";"1";"CH5800791123000889012";"S";"Robert Schneider AG";"Rue du Lac";"1268";"2501";"Biel";"CH";"";"CHF";"S";"Pia-Maria Rutschmann-Schnyder";"Grosse Marktgasse";"28";"3014";"Bern";"CH";"SCOR";"RF18539007547034";"";"";"";""
"EN";"LIBERATION_SANS";"jpeg";"HIGH_600_DPI";"a5";"1";"1";"1";"";"CH3709000000304442225";"S";"Robert Schneider AG";"Rue du Lac";"1268";"2501";"Biel";"CH";"";"CHF";"";"";"";"";"";"";"";"NON";"";"Auftrag vom 03.04.2019";"";"";""
"DE";"LIBERATION_SANS";"JPEG";"LOW_150_DPI";"DIN_LANG_CROPPED";"1";"1";"";"1";"CH4431999123000889012";"S";"Robert Schneider AG";"Rue du Lac";"1268";"2501";"Biel";"CH";"0";"CHF";"S";"Pia-Maria Rutschmann-Schnyder";"Grosse Marktgasse";"28";"3014";"Bern";"CH";"QRR";"210000000003139471430009017";"NICHT ZUR ZAHLUNG VERWENDEN";"";"";""
"DE";"LIBERATION_SANS";"PDF";"";"DIN_LANG";"";"";"";"";"CH4431999123000889012";"S";"Robert Schneider AG";"Rue du Lac";"1268";"2501";"Biel";"CH";"130.10";"EUR";"S";"Pia-Maria Rutschmann-Schnyder";"Grosse Marktgasse";"28";"3014";"Bern";"CH";"QRR";"210000000003139471430009017";"Auftrag vom 03.04.2019";"//S1/10/10201409/11/190512/20/1400.000-53/30/106017086/31/180508/32/7.7/40/2:10;0:30";"eBill/B/john.doe@example.com";"eBill/B/john.doe@example.com"
"IT";"LIBERATION_SANS";"PNG";"MEDIUM_300_DPI";"DIN_LANG";"1";"1";"";"1";"CH5800791123000889012";"S";"Robert Schneider AG";"Rue du Lac";"1268";"2501";"Biel";"CH";"";"CHF";"S";"Pia-Maria Rutschmann-Schnyder";"Grosse Marktgasse";"28";"3014";"Bern";"CH";"SCOR";"RF18539007547034";"";"";"";""
"EN";"LIBERATION_SANS";"JPEG";"HIGH_600_DPI";"A4";"1";"1";"1";"";"CH3709000000304442225";"S";"Robert Schneider AG";"Rue du Lac";"1268";"2501";"Biel";"CH";"";"CHF";"";"";"";"";"";"";"";"NON";"";"Auftrag vom 03.04.2019";"";"";""
"DE";"LIBERATION_SANS";"JPEG";"LOW_150_DPI";"DIN_LANG_CROPPED";"1";"1";"";"1";"CH4431999123000889012";"S";"Robert Schneider AG";"Rue du Lac";"1268";"2501";"Biel";"CH";"0";"CHF";"S";"Pia-Maria Rutschmann-Schnyder";"Grosse Marktgasse";"28";"3014";"Bern";"CH";"QRR";"210000000003139471430009017";"NICHT ZUR ZAHLUNG VERWENDEN";"";"";""
"DE";"LIBERATION_SANS";"JPEG";"LOW_150_DPI";"DIN_LANG_CROPPED";"1";"1";"";"1";"CH4431999123000889012";"S";"Robert Schneider AG";"Rue du Lac";"1268";"2501";"Biel";"CH";"0";"CHF";"S";"Pia-Maria Rutschmann-Schnyder";"Grosse Marktgasse";"28";"3014";"Bern";"CH";"QRR";"210000000003139471430009017";"NICHT ZUR ZAHLUNG VERWENDEN";"";"";""
"";"";"";"";"";"";"";"";"";"CH4431999123000889012";"S";"Robert Schneider AG";"Rue du Lac";"1268";"2501";"Biel";"CH";"0";"CHF";"S";"Pia-Maria Rutschmann-Schnyder";"Grosse Marktgasse";"28";"3014";"Bern";"CH";"QRR";"210000000003139471430009017";"NICHT ZUR ZAHLUNG VERWENDEN";"";"";""
"DE";"LIBERATION_SANS";"JPEG";"LOW_150_DPI";"DIN_LANG_CROPPED";"1";"1";"";"1";"CH4431999123000889012";"S";"Robert Schneider AG";"Rue du Lac";"1268";"2501";"Biel";"CH";"0";"CHF";"S";"Pia-Maria Rutschmann-Schnyder";"Grosse Marktgasse";"28";"3014";"Bern";"CH";"QRR";"210000000003139471430009017";"NICHT ZUR ZAHLUNG VERWENDEN";"";"";""
