﻿SPC
0200
1
CH5204835012345671000
K
Fondazione Mondo Migliore
Casella postale
3001 Berna


CH








CHF







NON


EPD
//S1/10/10201409/11/200630/20/140.000-53/30/102673831/31/200630
eBill/B/sarah.beispiel@einfach-zahlen.ch