﻿SPC
0200
1
CH4831988000006669440
K
Stiftung Bessere Welt
Postfach
3001 Bern


CH








CHF







QRR
000008639361539912849842165

EPD
//S1/10/10201409/11/200630/20/140.000-53/30/102673831/31/200630
eBill/B/sarah.beispiel@einfach-zahlen.ch