﻿SPC
0200
1
CH5204835012345671000
K
Fondation monde meilleur
Case postale
3001 Berne


CH








CHF







SCOR
RF9120191230100533PYZ0768

EPD
//S1/10/10201409/11/200630/20/140.000-53/30/102673831/31/200630
eBill/B/sarah.beispiel@einfach-zahlen.ch